Spotify Analysis | Antonio Marks
…
So as you can see below, i’ve filtered the data for Scorpion and pulled out only the danceability, speechiness and tempo.

## # A tibble: 25 x 2
##    track_name          speechiness
##    <chr>                     <dbl>
##  1 8 Out Of 10               0.74 
##  2 Final Fantasy             0.442
##  3 Blue Tint                 0.358
##  4 March 14                  0.358
##  5 Survival                  0.358
##  6 I'm Upset                 0.344
##  7 Is There More             0.315
##  8 Emotionless               0.255
##  9 Sandra’s Rose             0.246
## 10 That’s How You Feel       0.209
## # ... with 15 more rows

## # A tibble: 25 x 2
##    track_name                                danceability
##    <chr>                                            <dbl>
##  1 Nonstop                                          0.912
##  2 I'm Upset                                        0.899
##  3 Blue Tint                                        0.888
##  4 That’s How You Feel                              0.85 
##  5 In My Feelings                                   0.835
##  6 Don’t Matter To Me (with Michael Jackson)        0.826
##  7 Finesse                                          0.807
##  8 Summer Games                                     0.775
##  9 Jaded                                            0.766
## 10 Can’t Take A Joke                                0.761
## # ... with 15 more rows

## # A tibble: 25 x 2
##    track_name                                      tempo
##    <chr>                                           <dbl>
##  1 Can’t Take A Joke                                174.
##  2 Emotionless                                      173.
##  3 8 Out Of 10                                      171.
##  4 Ratchet Happy Birthday                           168.
##  5 Nonstop                                          155.
##  6 Sandra’s Rose                                    152.
##  7 I'm Upset                                        150.
##  8 Final Fantasy                                    144.
##  9 After Dark (feat. Static Major & Ty Dolla $ign)  142.
## 10 Talk Up (feat. Jay-Z)                            140.
## # ... with 15 more rows
…
